1===============================================================================
la creation de code front and c'est a dire affichage index.php + pannier.php
2===============================================================================
creation base donne qui centient la table 
3==============================================================================
code php des deux pages
4==============================================================================
connection de base donne avec php
5=========================================================
dans l index.php en ajout includ avant la formulaire des produit
en inclure la page de connextion:
=== include_once "conx_db.php";
afficher la liste des produits + la vaidaion de php dans la form des images pour les produites:
 <?php
        //inclure la page de connexion
        include_once "conx_db.php";
        //afficher la liste des produits
$req=mysqli_query($con,"select * from panier ");
        while($row =mysqli_fetch_assoc($req)){

    
        ?>
        <form action=""class="product">
            <div class="images_product">
                <img src="images/<?= $row['img']?>">

            </div>
            <div class="content">
                <h4 class="name"><?= $row['name']?></h4>
                <h2 class="price"><?= $row['prix']?>$</h2>
                <a href="ajouter_pannier.php?id=<?= $row['id']?>" class="id_produit">Ajouter au pannier</a>
            </div>
        </form>
        <?php } ?>

6=================ajouter_pannier.php=======================



